PHÂN TÍCH VÀ XÂY DỰNG MÔ HÌNH DỰ ĐOÁN VỚI TẬP DỮ LIỆU BÁN HÀNG PIZZA RESTAURANT SALES
…
Tổng hợp dữ liệu theo danh mục bánh

sales_by_category <- df %>%
  group_by(pizza_category, order_month) %>%
  summarise(
    total_sales = sum(quantity)
  )

## `summarise()` has grouped output by 'pizza_category'. You can override using
## the `.groups` argument.

sales_by_category

## # A tibble: 48 × 3
## # Groups:   pizza_category [4]
##    pizza_category order_month total_sales
##    <fct>          <fct>             <dbl>
##  1 Chicken        January             913
##  2 Chicken        February            875
##  3 Chicken        March               994
##  4 Chicken        April               924
##  5 Chicken        May                 939
##  6 Chicken        June                910
##  7 Chicken        July                963
##  8 Chicken        August              934
##  9 Chicken        September           900
## 10 Chicken        October             832
## # ℹ 38 more rows
…
Kruskal-Wallis là một kiểm định phi tham số, đặc biệt được dùng khi
biến không có phân phối chuẩn, phù hợp để so sánh sự biến thiên của
doanh thu giữa các tháng cho từng pizza.

kruskal_test <- sales_by_pizza_monthly %>%
  group_by(pizza_name) %>%
  do({
    kruskal_result <- kruskal.test(total_sales ~ order_month, data = .)
    data.frame(pizza_name = unique(.$pizza_name), p_value = kruskal_result$p.value)
  })

print(kruskal_test)

## # A tibble: 32 × 2
## # Groups:   pizza_name [32]
##    pizza_name                   p_value
##    <chr>                          <dbl>
##  1 The Barbecue Chicken Pizza     0.443
##  2 The Big Meat Pizza             0.443
##  3 The Brie Carre Pizza           0.443
##  4 The Calabrese Pizza            0.443
##  5 The California Chicken Pizza   0.443
##  6 The Chicken Alfredo Pizza      0.443
##  7 The Chicken Pesto Pizza        0.443
##  8 The Classic Deluxe Pizza       0.443
##  9 The Five Cheese Pizza          0.443
## 10 The Four Cheese Pizza          0.443
## # ℹ 22 more rows
…
